com\thatchai\databaseproject\dao\Dao.class
com\thatchai\databaseproject\InsertDatabase.class
com\thatchai\databaseproject\model\User.class
com\thatchai\databaseproject\TestUserServicec.class
com\thatchai\databaseproject\TestUserDao.class
com\thatchai\databaseproject\SelectDatabase.class
com\thatchai\databaseproject\helper\DatabaseHelper.class
com\thatchai\databaseproject\UpdateDatabase1.class
com\thatchai\databaseproject\ConnectDatabase.class
com\thatchai\databaseproject\dao\UserDao.class
com\thatchai\databaseproject\service\UserService.class
